<?xml version="1.0" encoding="utf-8"?>
<!-- Generator: Adobe Illustrator 21.0.2, SVG Export Plug-In . SVG Version: 6.00 Build 0)  -->
<svg version="1.0" id="Layer_1" xmlns="http://www.w3.org/2000/svg" xmlns:xlink="http://www.w3.org/1999/xlink" x="0px" y="0px"
	 viewBox="0 0 38 68" style="enable-background:new 0 0 38 68;" xml:space="preserve">
<style type="text/css">
	.st0{fill:#FFFFFF;}
</style>
<g>
	<g>
		<path class="st0" d="M0.9,3.1c10.9,10.7,21.8,21.3,32.7,32c0-0.7,0-1.4,0-2.1c-10.9,10.7-21.8,21.3-32.7,32
			c-1.4,1.4,0.7,3.5,2.1,2.1c10.9-10.7,21.8-21.3,32.7-32c0.6-0.6,0.6-1.6,0-2.1C24.9,22.3,14,11.6,3.1,0.9C1.7-0.4-0.4,1.7,0.9,3.1
			L0.9,3.1z"/>
	</g>
</g>
<g>
</g>
<g>
</g>
<g>
</g>
<g>
</g>
<g>
</g>
<g>
</g>
<g>
</g>
<g>
</g>
<g>
</g>
<g>
</g>
<g>
</g>
</svg>
