<?xml version="1.0" encoding="utf-8"?>
<!-- Generator: Adobe Illustrator 21.0.2, SVG Export Plug-In . SVG Version: 6.00 Build 0)  -->
<svg version="1.1" id="Layer_1" xmlns="http://www.w3.org/2000/svg" xmlns:xlink="http://www.w3.org/1999/xlink" x="0px" y="0px"
	 viewBox="0 0 612.4 612" style="enable-background:new 0 0 612.4 612;" xml:space="preserve">
<style type="text/css">
	.st0{fill:#FF5000;}
	.st1{fill:#FFFFFF;}
</style>
<g>
	<polygon class="st0" points="612.4,0 612.4,612 0.4,612 	"/>
	<g>
		<polygon id="XMLID_213_" class="st1" points="493.6,348.4 552.3,348.4 552.3,231.2 464.6,231.3 376.6,318.7 376.6,480 435.1,480 
			435.1,275.2 493.6,275.2 		"/>
		<rect id="XMLID_212_" x="493.7" y="407.1" class="st1" width="58.7" height="72.8"/>
	</g>
	<g>
		<g>
			<path class="st1" d="M225.8,548.7c0,9.1-0.9,11.2-9.9,11.2c-2.6,0-5.2,0-7.8,0.1c-2.6,0-5.2,0.1-7.9,0.1l-2.2,0
				c-7.5,0-11.9,0-14.2-2.3c-1.9-2-2.6-6-2.5-13.8l0.1-8.7c0.1-13.2,2.1-13.6,13.9-13.6c2.5,0,5,0,7.5-0.1c2.5,0,5-0.1,7.4-0.1
				c1,0,2.1,0,3,0c4.5-0.1,8-0.2,9.9,1.8c1.4,1.4,2,4,2,7.8v1.9h7.9l0.1-3.6c0.1-4.2-0.4-7.2-1.5-9.2c-4-6.9-13.3-6.8-20.1-6.8
				c-0.6,0-1.2,0-1.8,0c-2.5,0-5.1,0-7.6,0.1c-2.6,0-5.1,0.1-7.7,0.1c-15.9,0-21.6,3.2-21.8,21.1l-0.1,8.6
				c-0.1,8.5,0.2,15.9,4.4,20.3c3,3.1,7.5,4.6,14.3,4.6h24.6c12.1,0,18.2-2.7,18.2-17.3v-3.2h-8.4V548.7z"/>
			<polygon class="st1" points="294,536.2 251.3,536.2 251.3,513.4 242.7,513.4 242.7,568 251.3,568 251.3,544.1 294,544.1 294,568 
				302.6,568 302.6,513.4 294,513.4 			"/>
			<rect x="310.4" y="513.4" class="st1" width="8.6" height="54.6"/>
			<polygon class="st1" points="382.1,557.9 338.4,513.4 327,513.4 327,568 335.7,568 335.7,523.7 379.3,568 390.7,568 390.7,513.4 
				382.1,513.4 			"/>
			<path class="st1" d="M447,513.4h-28c-7.9,0-13,1.5-16.2,4.9c-4.3,4.6-4.1,11.6-4,20.6c0,1.8,0.1,3.7,0.1,5.6
				c0,14.2,1.2,23.5,17.4,23.5H444c16.2,0,20.5-4.3,20.6-21l0.1-10.3c0-8.4-0.7-14.8-4.6-18.9C457.3,514.9,453,513.4,447,513.4z
				 M407.6,543.2l0.1-11.3c0-5.3,0.2-8.2,4.9-9.8c1.6-0.5,10.5-0.6,17.1-0.6c2.1,0,4,0,5.4,0l2.3,0l2.7,0c7,0,11.3,0,13.4,2.2
				c1.8,1.9,2.5,5.6,2.5,13.2v7.9c0,13.6-1.5,15.2-14.4,15.2c-2.6,0-5.2,0-7.8,0.1c-2.6,0-5.2,0.1-7.8,0.1c-8.3,0-13.3,0-15.7-2.5
				C408.3,555.5,407.6,551.6,407.6,543.2z"/>
			<rect x="472.6" y="513.4" class="st1" width="8.6" height="54.6"/>
			<polygon class="st1" points="544.2,513.4 544.2,557.9 500.6,513.4 489.2,513.4 489.2,568 497.9,568 497.9,523.7 541.5,568 
				552.9,568 552.9,513.4 			"/>
		</g>
		<g>
			<path class="st1" d="M568.1,514.2c-6.2,0-11.2,5.2-11.2,11.7c0,6.4,5,11.7,11.2,11.7c6.2,0,11.2-5.2,11.2-11.7
				C579.2,519.5,574.2,514.2,568.1,514.2z M568,535.1c-4.8,0-8.8-4.1-8.8-9.2c0-5.1,4-9.2,8.8-9.2c4.9,0,8.8,4.1,8.8,9.2
				C576.8,531,572.9,535.1,568,535.1z"/>
			<g>
				<path class="st1" d="M572.9,523.6c0-3.6-4.2-3.5-6.6-3.5c-0.9,0-1.9,0-2.9,0v11.7h2.1v-4.2l1,0c0.6,0,2.1,0,2.6,0.3
					c1.3,0.7,1.4,2.6,1.5,4h2.3c0-2.5-0.2-4.3-2.7-5.2C571.6,526.2,572.9,525.3,572.9,523.6z M568.3,525.6l-2.8,0v-3.7
					c0.6,0,1.3,0,1.9,0c1.1,0,3.2,0,3.2,1.7C570.6,525,569.6,525.6,568.3,525.6z"/>
			</g>
		</g>
	</g>
</g>
</svg>
