<svg xmlns="http://www.w3.org/2000/svg" viewBox="0 0 70 100">
  <title id="feel-title">
    Feel 360
  </title>
  <desc id="feel-desc">
    Feel 360
  </desc>
  <style>
<![CDATA[
  .st0{fill:#C3D52E;}
]]>
  </style>
  <path class="st0" d="M54.1 42c-5.2-5.2-12.1-8.1-19.4-8.1-6.7 0-13 2.4-18 6.7l11.8-1.8-.5 9.3c2-1 4.2-1.6 6.5-1.6 4 0 7.7 1.6 10.5 4.3 2.8 2.8 4.3 6.5 4.3 10.5S47.7 69 45 71.8c-2.8 2.8-6.5 4.3-10.5 4.3s-7.7-1.6-10.5-4.3c-3.3-3.3-4.7-7.9-4.2-12.3l4.5 4 .8-21-20.7 3.3 5.1 4.5c-4.4 10-2.5 22.3 5.7 30.5 5.2 5.2 12.1 8.1 19.4 8.1 7.3 0 14.2-2.9 19.4-8.1 5.2-5.2 8.1-12.1 8.1-19.4 0-7.4-2.8-14.3-8-19.4z"/>
</svg>