<?xml version="1.0" encoding="utf-8"?>
<!-- Generator: Adobe Illustrator 21.0.2, SVG Export Plug-In . SVG Version: 6.00 Build 0)  -->
<svg version="1.1" id="Layer_1" xmlns="http://www.w3.org/2000/svg" xmlns:xlink="http://www.w3.org/1999/xlink" x="0px" y="0px"
	 viewBox="0 0 612 792" style="enable-background:new 0 0 612 792;" xml:space="preserve">
<style type="text/css">
	.st0{opacity:0.3;fill:#231F20;stroke:#FFFFFF;stroke-width:3.6758;stroke-miterlimit:10;enable-background:new    ;}
	.st1{fill:#FFFFFF;}
</style>
<g>
	<circle class="st0" cx="306.7" cy="394.7" r="203"/>
	<g>
		<g>
			<path class="st1" d="M445.9,474.6H167.8L306.7,245L445.9,474.6z M178.2,468.6h257.2L306.7,256.1L178.2,468.6z"/>
		</g>
		<g>
			<polygon class="st1" points="406.9,454 329.2,454 329.2,448.3 396.5,448.3 306.4,298.9 216.9,448.3 284.5,448.3 284.5,454 
				206.8,454 306.4,287.5 			"/>
		</g>
		<g>
			<path class="st1" d="M309.6,433.4h-5.4c-4.4,0-7.9-3.5-8.2-7.6l-4.8-66.9c0-2.2,0.6-4.4,2.2-6.3c1.6-1.6,3.8-2.5,6-2.5H314
				c2.2,0,4.4,1,6,2.5s2.2,3.8,2.2,6.3l-4.8,66.9C317.5,429.9,313.7,433.4,309.6,433.4z M299.4,355.7c-0.6,0-1.3,0.3-1.9,0.6
				c-0.3,0.6-0.6,1.3-0.6,1.9l4.8,66.9c0,1.3,1.3,2.2,2.5,2.2h5.4c1.3,0,2.5-1,2.5-2.2l4.8-66.9c0-0.6-0.3-1.3-0.6-1.9
				c-0.3-0.6-1.3-0.6-1.9-0.6H299.4z"/>
		</g>
		<g>
			<path class="st1" d="M306.7,464.8c-7.6,0-13.6-6-13.6-13.6s6-13.6,13.6-13.6s13.6,6,13.6,13.6
				C320.7,458.8,314.3,464.8,306.7,464.8z M306.7,443.2c-4.4,0-7.9,3.5-7.9,7.9s3.5,7.9,7.9,7.9s7.9-3.5,7.9-7.9
				S311.1,443.2,306.7,443.2z"/>
		</g>
	</g>
</g>
<g>
	<path class="st1" d="M1.7,629.9h21c3.8,0,7,0.5,9.4,1.5c2.5,1,4.4,2.4,5.9,4c1.4,1.6,2.4,3.4,3,5.4c0.6,2,0.8,4,0.8,5.8
		c0,1.8-0.3,3.8-0.8,5.8c-0.6,2-1.5,3.8-3,5.4c-1.4,1.6-3.4,2.9-5.9,4c-2.5,1-5.6,1.5-9.4,1.5H9.8v26.3H1.7V629.9z M9.8,656.2h10.6
		c1.6,0,3.1-0.1,4.7-0.4c1.5-0.3,2.9-0.7,4.1-1.4c1.2-0.7,2.2-1.7,2.9-2.9c0.7-1.3,1.1-2.9,1.1-4.9s-0.4-3.7-1.1-4.9
		c-0.7-1.3-1.7-2.2-2.9-2.9c-1.2-0.7-2.6-1.1-4.1-1.4c-1.5-0.3-3.1-0.4-4.7-0.4H9.8V656.2z"/>
	<path class="st1" d="M49.2,629.9h21c3.8,0,7,0.5,9.4,1.5c2.5,1,4.4,2.4,5.9,4c1.4,1.6,2.4,3.4,3,5.4c0.6,2,0.8,4,0.8,5.8
		c0,1.9-0.3,3.8-1,5.5s-1.7,3.4-2.9,4.8c-1.3,1.4-2.8,2.6-4.7,3.6c-1.8,1-3.9,1.6-6.1,1.8l17,27.2H81.4l-15.2-26.3h-9.1v26.3h-8.1
		v-59.7H49.2z M57.3,656.2H68c1.6,0,3.1-0.1,4.7-0.4s2.9-0.7,4.1-1.4c1.2-0.7,2.2-1.7,2.9-2.9c0.7-1.3,1.1-2.9,1.1-4.9
		s-0.4-3.7-1.1-4.9c-0.7-1.3-1.7-2.2-2.9-2.9c-1.2-0.7-2.6-1.1-4.1-1.4c-1.5-0.3-3.1-0.4-4.7-0.4H57.3V656.2z"/>
	<path class="st1" d="M98.3,629.9h38.6v7.6h-30.5v17.8h28.4v7.6h-28.4V682h32v7.6H98.3C98.3,689.6,98.3,629.9,98.3,629.9z"/>
	<path class="st1" d="M188.9,642.8c-1.7-2.2-3.8-3.9-6.4-5c-2.6-1.2-5.2-1.8-8-1.8c-3.4,0-6.4,0.6-9.2,1.9s-5,3-7,5.2
		s-3.4,4.8-4.5,7.7c-1.1,2.9-1.6,6.1-1.6,9.5c0,3.1,0.5,6.1,1.5,8.9c1,2.8,2.5,5.3,4.4,7.4c1.9,2.2,4.3,3.8,7,5s5.9,1.8,9.4,1.8
		c3.4,0,6.4-0.7,9.1-2.1c2.6-1.4,4.8-3.4,6.6-5.9l6.8,5.2c-0.4,0.6-1.2,1.5-2.4,2.7c-1.1,1.1-2.6,2.3-4.5,3.4
		c-1.8,1.1-4.1,2.2-6.7,3.1c-2.6,0.9-5.6,1.3-9.1,1.3c-4.7,0-9-0.9-12.8-2.7c-3.8-1.8-7-4.1-9.7-7.1c-2.7-2.9-4.7-6.2-6.1-9.9
		c-1.4-3.7-2.1-7.4-2.1-11.2c0-4.6,0.8-8.9,2.3-12.8c1.5-3.9,3.6-7.3,6.4-10.1c2.7-2.9,6-5,9.8-6.6c3.8-1.6,8-2.4,12.6-2.4
		c4,0,7.8,0.8,11.6,2.3s6.9,3.8,9.3,7L188.9,642.8z"/>
	<path class="st1" d="M222.9,629.9h7.3l25.6,59.8h-9.4l-6-14.8h-28.4l-5.9,14.8h-9.4L222.9,629.9z M237.4,667.8l-11.2-27.4h-0.2
		l-11.3,27.4H237.4z"/>
	<path class="st1" d="M268,629.9v36.6c0,1.8,0.3,3.8,0.8,5.8c0.5,2,1.3,3.8,2.6,5.5c1.2,1.7,2.7,3.1,4.7,4.1
		c1.9,1.1,4.3,1.6,7.1,1.6s5.2-0.5,7.1-1.6c1.9-1.1,3.4-2.4,4.7-4.1c1.2-1.7,2-3.5,2.6-5.5c0.5-2,0.8-4,0.8-5.8v-36.6h8.1v37.9
		c0,3.5-0.6,6.6-1.8,9.5c-1.2,2.9-2.8,5.3-4.9,7.4c-2.1,2.1-4.5,3.7-7.3,4.8c-2.8,1.1-5.9,1.7-9.1,1.7c-3.3,0-6.3-0.6-9.1-1.7
		c-2.8-1.1-5.2-2.7-7.3-4.8c-2.1-2.1-3.7-4.5-4.9-7.4s-1.8-6-1.8-9.5v-37.9H268z"/>
	<path class="st1" d="M359.5,642.8c-1.7-2.2-3.8-3.9-6.4-5c-2.6-1.2-5.2-1.8-8-1.8c-3.4,0-6.4,0.6-9.2,1.9c-2.7,1.3-5,3-7,5.2
		c-1.9,2.2-3.4,4.8-4.5,7.7c-1.1,2.9-1.6,6.1-1.6,9.5c0,3.1,0.5,6.1,1.5,8.9c1,2.8,2.5,5.3,4.4,7.4c1.9,2.2,4.3,3.8,7,5
		s5.9,1.8,9.4,1.8c3.4,0,6.4-0.7,9.1-2.1c2.6-1.4,4.8-3.4,6.6-5.9l6.8,5.2c-0.4,0.6-1.2,1.5-2.4,2.7c-1.1,1.1-2.6,2.3-4.5,3.4
		c-1.8,1.1-4.1,2.2-6.7,3.1s-5.6,1.3-9.1,1.3c-4.7,0-9-0.9-12.8-2.7c-3.8-1.8-7-4.1-9.7-7.1s-4.7-6.2-6.1-9.9
		c-1.4-3.7-2.1-7.4-2.1-11.2c0-4.6,0.8-8.9,2.3-12.8c1.5-3.9,3.6-7.3,6.4-10.1c2.7-2.9,6-5,9.8-6.6c3.8-1.6,8-2.4,12.6-2.4
		c4,0,7.8,0.8,11.6,2.3s6.9,3.8,9.3,7L359.5,642.8z"/>
	<path class="st1" d="M374.8,629.9h8.1v59.8h-8.1V629.9z"/>
	<path class="st1" d="M423.2,691.2c-4.5,0-8.7-0.8-12.6-2.4c-3.8-1.6-7.1-3.8-9.8-6.6s-4.8-6.1-6.4-9.9c-1.5-3.8-2.3-8-2.3-12.4
		c0-4.5,0.8-8.6,2.3-12.4c1.5-3.8,3.7-7.1,6.4-9.9c2.7-2.8,6-5,9.8-6.6c3.8-1.6,8-2.4,12.6-2.4c4.5,0,8.7,0.8,12.6,2.4
		c3.8,1.6,7.1,3.8,9.8,6.6s4.8,6.1,6.4,9.9c1.5,3.8,2.3,8,2.3,12.4c0,4.5-0.8,8.6-2.3,12.4c-1.5,3.8-3.7,7.1-6.4,9.9
		c-2.7,2.8-6,5-9.8,6.6C431.9,690.3,427.7,691.2,423.2,691.2z M423.2,683.6c3.4,0,6.5-0.6,9.3-1.9c2.7-1.3,5.1-3,7.1-5.1
		c2-2.2,3.5-4.7,4.5-7.5c1.1-2.9,1.6-6,1.6-9.2s-0.5-6.3-1.6-9.2c-1.1-2.9-2.6-5.4-4.5-7.5c-2-2.2-4.3-3.8-7.1-5.1
		c-2.7-1.3-5.9-1.9-9.3-1.9c-3.4,0-6.5,0.6-9.3,1.9c-2.7,1.3-5.1,3-7.1,5.1c-2,2.2-3.5,4.7-4.5,7.5c-1.1,2.9-1.6,6-1.6,9.2
		s0.5,6.3,1.6,9.2c1.1,2.9,2.6,5.4,4.5,7.5c2,2.2,4.3,3.8,7.1,5.1C416.6,682.9,419.7,683.6,423.2,683.6z"/>
	<path class="st1" d="M463.4,629.9h10.6L507,679h0.2v-49.1h8.1v59.8H505l-33.2-49.1h-0.2v49.1h-8.2V629.9z"/>
	<path class="st1" d="M528,629.9h38.6v7.6h-30.5v17.8h28.4v7.6h-28.4V682h32v7.6H528V629.9z"/>
	<path class="st1" d="M578.8,677.1c1.5,2.2,3.3,3.8,5.6,4.8c2.3,1,4.7,1.5,7,1.5c1.3,0,2.7-0.2,4.1-0.6c1.4-0.4,2.7-1.1,3.8-1.9
		s2.1-1.9,2.8-3.1c0.7-1.2,1.1-2.7,1.1-4.3c0-2.3-0.7-4.1-2.2-5.3s-3.3-2.2-5.4-3.1s-4.5-1.6-7.1-2.4c-2.6-0.8-4.9-1.8-7.1-3.2
		c-2.2-1.3-4-3.2-5.4-5.4c-1.5-2.3-2.2-5.4-2.2-9.2c0-1.7,0.4-3.6,1.1-5.5c0.8-2,2-3.8,3.6-5.4c1.7-1.7,3.7-3,6.3-4.1
		c2.6-1.1,5.6-1.7,9.2-1.7c3.3,0,6.4,0.4,9.4,1.3c3,0.9,5.6,2.7,7.8,5.5l-6.6,6c-1-1.6-2.4-2.9-4.3-3.8s-4-1.4-6.3-1.4
		c-2.2,0-4.1,0.3-5.6,0.9s-2.7,1.3-3.6,2.3c-0.9,1-1.5,1.9-1.9,3c-0.4,1.1-0.6,2-0.6,2.9c0,2.6,0.7,4.5,2.2,5.8
		c1.5,1.3,3.3,2.4,5.4,3.3c2.2,0.8,4.5,1.6,7.1,2.3c2.6,0.7,4.9,1.6,7.1,2.8c2.2,1.2,4,2.9,5.4,4.9c1.5,2,2.2,4.9,2.2,8.5
		c0,2.9-0.6,5.5-1.7,7.8c-1.1,2.3-2.6,4.3-4.4,5.8c-1.8,1.6-4.1,2.8-6.6,3.6c-2.6,0.8-5.2,1.3-8.1,1.3c-3.8,0-7.5-0.7-10.9-2
		c-3.4-1.3-6.2-3.4-8.2-6.2L578.8,677.1z"/>
</g>
</svg>
